\relax 
\providecommand\hyper@newdestlabel[2]{}
\providecommand*\new@tpo@label[2]{}
\catcode `"\active 
\providecommand\HyperFirstAtBeginDocument{\AtBeginDocument}
\HyperFirstAtBeginDocument{\ifx\hyper@anchor\@undefined
\global\let\oldcontentsline\contentsline
\gdef\contentsline#1#2#3#4{\oldcontentsline{#1}{#2}{#3}}
\global\let\oldnewlabel\newlabel
\gdef\newlabel#1#2{\newlabelxx{#1}#2}
\gdef\newlabelxx#1#2#3#4#5#6{\oldnewlabel{#1}{{#2}{#3}}}
\AtEndDocument{\ifx\hyper@anchor\@undefined
\let\contentsline\oldcontentsline
\let\newlabel\oldnewlabel
\fi}
\fi}
\global\let\hyper@last\relax 
\gdef\HyperFirstAtBeginDocument#1{#1}
\providecommand\HyField@AuxAddToFields[1]{}
\providecommand\HyField@AuxAddToCoFields[2]{}
\babel@aux{german}{}
\@writefile{toc}{\contentsline {section}{\numberline {1}Learning Strategies}{1}{section.1}}
\@writefile{loe}{\contentsline {thm}{\numberline {\let \autodot \@empty }\thmtformatoptarg {Supervised Learning}}{1}{thmt@dummyctr.dummy.1}}
\@writefile{loe}{\contentsline {thm}{\numberline {\let \autodot \@empty }\thmtformatoptarg {Unsupervised Learning}}{1}{thmt@dummyctr.dummy.2}}
\@writefile{loe}{\contentsline {thm}{\numberline {\let \autodot \@empty }\thmtformatoptarg {Reinforcement Learning}}{1}{thmt@dummyctr.dummy.3}}
\@writefile{toc}{\contentsline {section}{\numberline {2}General Patterns}{1}{section.2}}
\@writefile{loe}{\contentsline {thm}{\numberline {\let \autodot \@empty }\thmtformatoptarg {Tokenization}}{1}{thmt@dummyctr.dummy.4}}
\@writefile{loe}{\contentsline {thm}{\numberline {\let \autodot \@empty }\thmtformatoptarg {K-Fold Cross Validation}}{1}{thmt@dummyctr.dummy.5}}
\@writefile{loe}{\contentsline {thm}{\numberline {\let \autodot \@empty }\thmtformatoptarg {Standardisation}}{1}{thmt@dummyctr.dummy.6}}
\@writefile{loe}{\contentsline {thm}{\numberline {\let \autodot \@empty }\thmtformatoptarg {Mean Normalisation}}{1}{thmt@dummyctr.dummy.7}}
\@writefile{toc}{\contentsline {section}{\numberline {3}Artificial Neural Networks}{2}{section.3}}
\@writefile{loe}{\contentsline {thm}{\numberline {\let \autodot \@empty }\thmtformatoptarg {McCulloch Pitts Neuron }}{2}{thmt@dummyctr.dummy.8}}
\@writefile{loe}{\contentsline {thm}{\numberline {\let \autodot \@empty }\thmtformatoptarg {Rosenblatt Perceptron}}{2}{thmt@dummyctr.dummy.9}}
\@writefile{loe}{\contentsline {thm}{\numberline {\let \autodot \@empty }\thmtformatoptarg {Backpropagation}}{2}{thmt@dummyctr.dummy.10}}
\@writefile{loe}{\contentsline {thm}{\numberline {\let \autodot \@empty }\thmtformatoptarg {Stochastic Gradient Descent}}{2}{thmt@dummyctr.dummy.11}}
\@writefile{loe}{\contentsline {thm}{\numberline {\let \autodot \@empty }\thmtformatoptarg {treshold function}}{2}{thmt@dummyctr.dummy.12}}
\@writefile{loe}{\contentsline {thm}{\numberline {\let \autodot \@empty }\thmtformatoptarg {sigmoid function}}{2}{thmt@dummyctr.dummy.13}}
\@writefile{loe}{\contentsline {thm}{\numberline {\let \autodot \@empty }\thmtformatoptarg {rectifier function}}{2}{thmt@dummyctr.dummy.14}}
\@writefile{loe}{\contentsline {thm}{\numberline {\let \autodot \@empty }\thmtformatoptarg {hyperbolic tangent (tanh)}}{2}{thmt@dummyctr.dummy.15}}
\@writefile{loe}{\contentsline {thm}{\numberline {\let \autodot \@empty }\thmtformatoptarg {init weights}}{4}{thmt@dummyctr.dummy.16}}
\@writefile{loe}{\contentsline {thm}{\numberline {\let \autodot \@empty }\thmtformatoptarg {read observations}}{4}{thmt@dummyctr.dummy.17}}
\@writefile{loe}{\contentsline {thm}{\numberline {\let \autodot \@empty }\thmtformatoptarg {backpropagation}}{4}{thmt@dummyctr.dummy.18}}
\@writefile{toc}{\contentsline {section}{\numberline {4}Recurrent Neural Networks}{4}{section.4}}
\@writefile{loe}{\contentsline {thm}{\numberline {\let \autodot \@empty }\thmtformatoptarg {exploding gradient}}{5}{thmt@dummyctr.dummy.19}}
\@writefile{loe}{\contentsline {thm}{\numberline {\let \autodot \@empty }\thmtformatoptarg {vanishing gradient}}{5}{thmt@dummyctr.dummy.20}}
\@writefile{loe}{\contentsline {thm}{\numberline {\let \autodot \@empty }\thmtformatoptarg { }}{7}{thmt@dummyctr.dummy.21}}
