\BOOKMARK [1][-]{section.1}{Learning Strategies}{}% 1
\BOOKMARK [1][-]{section.2}{General Patterns}{}% 2
\BOOKMARK [1][-]{section.3}{Artificial Neural Networks}{}% 3
\BOOKMARK [1][-]{section.4}{Recurrent Neural Networks}{}% 4
